^C:\USERS\RANDSTAD\DOCUMENTS\VISUAL STUDIO 2017\PROJECTS\PROJECT CCP\PROJECT CCP\MAIN.CPP
/c /ZI /nologo /W3 /WX- /diagnostics:classic /sdl /Od /Ob2 /Ot /Oy- /D GLEW_STATIC /D _CRT_SECURE_NO_WARNINGS /D _MBCS /Gm /EHsc /RTC1 /MDd /GS /fp:fast /permissive- /Zc:wchar_t /Zc:forScope /Zc:inline /Fo"C:\USERS\RANDSTAD\DOCUMENTS\VISUAL STUDIO 2017\PROJECTS\PROJECT CCP\BIN\DEBUG\INTERMEDIATES\\" /Fd"C:\USERS\RANDSTAD\DOCUMENTS\VISUAL STUDIO 2017\PROJECTS\PROJECT CCP\BIN\DEBUG\INTERMEDIATES\VC141.PDB" /Gd /TP /analyze- C:\USERS\RANDSTAD\DOCUMENTS\VISUAL STUDIO 2017\PROJECTS\PROJECT CCP\PROJECT CCP\MAIN.CPP
^C:\USERS\RANDSTAD\DOCUMENTS\VISUAL STUDIO 2017\PROJECTS\PROJECT CCP\PROJECT CCP\SRC\GRAPHICS\BATCHRENDERER2D.CPP
/c /ZI /nologo /W3 /WX- /diagnostics:classic /sdl /Od /Ob2 /Ot /Oy- /D GLEW_STATIC /D _CRT_SECURE_NO_WARNINGS /D _MBCS /Gm /EHsc /RTC1 /MDd /GS /fp:fast /permissive- /Zc:wchar_t /Zc:forScope /Zc:inline /Fo"C:\USERS\RANDSTAD\DOCUMENTS\VISUAL STUDIO 2017\PROJECTS\PROJECT CCP\BIN\DEBUG\INTERMEDIATES\\" /Fd"C:\USERS\RANDSTAD\DOCUMENTS\VISUAL STUDIO 2017\PROJECTS\PROJECT CCP\BIN\DEBUG\INTERMEDIATES\VC141.PDB" /Gd /TP /analyze- C:\USERS\RANDSTAD\DOCUMENTS\VISUAL STUDIO 2017\PROJECTS\PROJECT CCP\PROJECT CCP\SRC\GRAPHICS\BATCHRENDERER2D.CPP
^C:\USERS\RANDSTAD\DOCUMENTS\VISUAL STUDIO 2017\PROJECTS\PROJECT CCP\PROJECT CCP\SRC\GRAPHICS\BUFFERS\BUFFER.CPP
/c /ZI /nologo /W3 /WX- /diagnostics:classic /sdl /Od /Ob2 /Ot /Oy- /D GLEW_STATIC /D _CRT_SECURE_NO_WARNINGS /D _MBCS /Gm /EHsc /RTC1 /MDd /GS /fp:fast /permissive- /Zc:wchar_t /Zc:forScope /Zc:inline /Fo"C:\USERS\RANDSTAD\DOCUMENTS\VISUAL STUDIO 2017\PROJECTS\PROJECT CCP\BIN\DEBUG\INTERMEDIATES\\" /Fd"C:\USERS\RANDSTAD\DOCUMENTS\VISUAL STUDIO 2017\PROJECTS\PROJECT CCP\BIN\DEBUG\INTERMEDIATES\VC141.PDB" /Gd /TP /analyze- C:\USERS\RANDSTAD\DOCUMENTS\VISUAL STUDIO 2017\PROJECTS\PROJECT CCP\PROJECT CCP\SRC\GRAPHICS\BUFFERS\BUFFER.CPP
^C:\USERS\RANDSTAD\DOCUMENTS\VISUAL STUDIO 2017\PROJECTS\PROJECT CCP\PROJECT CCP\SRC\GRAPHICS\BUFFERS\INDEXBUFFER.CPP
/c /ZI /nologo /W3 /WX- /diagnostics:classic /sdl /Od /Ob2 /Ot /Oy- /D GLEW_STATIC /D _CRT_SECURE_NO_WARNINGS /D _MBCS /Gm /EHsc /RTC1 /MDd /GS /fp:fast /permissive- /Zc:wchar_t /Zc:forScope /Zc:inline /Fo"C:\USERS\RANDSTAD\DOCUMENTS\VISUAL STUDIO 2017\PROJECTS\PROJECT CCP\BIN\DEBUG\INTERMEDIATES\\" /Fd"C:\USERS\RANDSTAD\DOCUMENTS\VISUAL STUDIO 2017\PROJECTS\PROJECT CCP\BIN\DEBUG\INTERMEDIATES\VC141.PDB" /Gd /TP /analyze- C:\USERS\RANDSTAD\DOCUMENTS\VISUAL STUDIO 2017\PROJECTS\PROJECT CCP\PROJECT CCP\SRC\GRAPHICS\BUFFERS\INDEXBUFFER.CPP
^C:\USERS\RANDSTAD\DOCUMENTS\VISUAL STUDIO 2017\PROJECTS\PROJECT CCP\PROJECT CCP\SRC\GRAPHICS\BUFFERS\VERTEXARRAY.CPP
/c /ZI /nologo /W3 /WX- /diagnostics:classic /sdl /Od /Ob2 /Ot /Oy- /D GLEW_STATIC /D _CRT_SECURE_NO_WARNINGS /D _MBCS /Gm /EHsc /RTC1 /MDd /GS /fp:fast /permissive- /Zc:wchar_t /Zc:forScope /Zc:inline /Fo"C:\USERS\RANDSTAD\DOCUMENTS\VISUAL STUDIO 2017\PROJECTS\PROJECT CCP\BIN\DEBUG\INTERMEDIATES\\" /Fd"C:\USERS\RANDSTAD\DOCUMENTS\VISUAL STUDIO 2017\PROJECTS\PROJECT CCP\BIN\DEBUG\INTERMEDIATES\VC141.PDB" /Gd /TP /analyze- C:\USERS\RANDSTAD\DOCUMENTS\VISUAL STUDIO 2017\PROJECTS\PROJECT CCP\PROJECT CCP\SRC\GRAPHICS\BUFFERS\VERTEXARRAY.CPP
^C:\USERS\RANDSTAD\DOCUMENTS\VISUAL STUDIO 2017\PROJECTS\PROJECT CCP\PROJECT CCP\SRC\GRAPHICS\SIMPLERENDERER2D.CPP
/c /ZI /nologo /W3 /WX- /diagnostics:classic /sdl /Od /Ob2 /Ot /Oy- /D GLEW_STATIC /D _CRT_SECURE_NO_WARNINGS /D _MBCS /Gm /EHsc /RTC1 /MDd /GS /fp:fast /permissive- /Zc:wchar_t /Zc:forScope /Zc:inline /Fo"C:\USERS\RANDSTAD\DOCUMENTS\VISUAL STUDIO 2017\PROJECTS\PROJECT CCP\BIN\DEBUG\INTERMEDIATES\\" /Fd"C:\USERS\RANDSTAD\DOCUMENTS\VISUAL STUDIO 2017\PROJECTS\PROJECT CCP\BIN\DEBUG\INTERMEDIATES\VC141.PDB" /Gd /TP /analyze- C:\USERS\RANDSTAD\DOCUMENTS\VISUAL STUDIO 2017\PROJECTS\PROJECT CCP\PROJECT CCP\SRC\GRAPHICS\SIMPLERENDERER2D.CPP
^C:\USERS\RANDSTAD\DOCUMENTS\VISUAL STUDIO 2017\PROJECTS\PROJECT CCP\PROJECT CCP\SRC\GRAPHICS\SHADER.CPP
/c /ZI /nologo /W3 /WX- /diagnostics:classic /sdl /Od /Ob2 /Ot /Oy- /D GLEW_STATIC /D _CRT_SECURE_NO_WARNINGS /D _MBCS /Gm /EHsc /RTC1 /MDd /GS /fp:fast /permissive- /Zc:wchar_t /Zc:forScope /Zc:inline /Fo"C:\USERS\RANDSTAD\DOCUMENTS\VISUAL STUDIO 2017\PROJECTS\PROJECT CCP\BIN\DEBUG\INTERMEDIATES\\" /Fd"C:\USERS\RANDSTAD\DOCUMENTS\VISUAL STUDIO 2017\PROJECTS\PROJECT CCP\BIN\DEBUG\INTERMEDIATES\VC141.PDB" /Gd /TP /analyze- C:\USERS\RANDSTAD\DOCUMENTS\VISUAL STUDIO 2017\PROJECTS\PROJECT CCP\PROJECT CCP\SRC\GRAPHICS\SHADER.CPP
^C:\USERS\RANDSTAD\DOCUMENTS\VISUAL STUDIO 2017\PROJECTS\PROJECT CCP\PROJECT CCP\SRC\GRAPHICS\SPRITE.CPP
/c /ZI /nologo /W3 /WX- /diagnostics:classic /sdl /Od /Ob2 /Ot /Oy- /D GLEW_STATIC /D _CRT_SECURE_NO_WARNINGS /D _MBCS /Gm /EHsc /RTC1 /MDd /GS /fp:fast /permissive- /Zc:wchar_t /Zc:forScope /Zc:inline /Fo"C:\USERS\RANDSTAD\DOCUMENTS\VISUAL STUDIO 2017\PROJECTS\PROJECT CCP\BIN\DEBUG\INTERMEDIATES\\" /Fd"C:\USERS\RANDSTAD\DOCUMENTS\VISUAL STUDIO 2017\PROJECTS\PROJECT CCP\BIN\DEBUG\INTERMEDIATES\VC141.PDB" /Gd /TP /analyze- C:\USERS\RANDSTAD\DOCUMENTS\VISUAL STUDIO 2017\PROJECTS\PROJECT CCP\PROJECT CCP\SRC\GRAPHICS\SPRITE.CPP
^C:\USERS\RANDSTAD\DOCUMENTS\VISUAL STUDIO 2017\PROJECTS\PROJECT CCP\PROJECT CCP\SRC\GRAPHICS\STATICSPRITE.CPP
/c /ZI /nologo /W3 /WX- /diagnostics:classic /sdl /Od /Ob2 /Ot /Oy- /D GLEW_STATIC /D _CRT_SECURE_NO_WARNINGS /D _MBCS /Gm /EHsc /RTC1 /MDd /GS /fp:fast /permissive- /Zc:wchar_t /Zc:forScope /Zc:inline /Fo"C:\USERS\RANDSTAD\DOCUMENTS\VISUAL STUDIO 2017\PROJECTS\PROJECT CCP\BIN\DEBUG\INTERMEDIATES\\" /Fd"C:\USERS\RANDSTAD\DOCUMENTS\VISUAL STUDIO 2017\PROJECTS\PROJECT CCP\BIN\DEBUG\INTERMEDIATES\VC141.PDB" /Gd /TP /analyze- C:\USERS\RANDSTAD\DOCUMENTS\VISUAL STUDIO 2017\PROJECTS\PROJECT CCP\PROJECT CCP\SRC\GRAPHICS\STATICSPRITE.CPP
^C:\USERS\RANDSTAD\DOCUMENTS\VISUAL STUDIO 2017\PROJECTS\PROJECT CCP\PROJECT CCP\SRC\GRAPHICS\WINDOW.CPP
/c /ZI /nologo /W3 /WX- /diagnostics:classic /sdl /Od /Ob2 /Ot /Oy- /D GLEW_STATIC /D _CRT_SECURE_NO_WARNINGS /D _MBCS /Gm /EHsc /RTC1 /MDd /GS /fp:fast /permissive- /Zc:wchar_t /Zc:forScope /Zc:inline /Fo"C:\USERS\RANDSTAD\DOCUMENTS\VISUAL STUDIO 2017\PROJECTS\PROJECT CCP\BIN\DEBUG\INTERMEDIATES\\" /Fd"C:\USERS\RANDSTAD\DOCUMENTS\VISUAL STUDIO 2017\PROJECTS\PROJECT CCP\BIN\DEBUG\INTERMEDIATES\VC141.PDB" /Gd /TP /analyze- C:\USERS\RANDSTAD\DOCUMENTS\VISUAL STUDIO 2017\PROJECTS\PROJECT CCP\PROJECT CCP\SRC\GRAPHICS\WINDOW.CPP
^C:\USERS\RANDSTAD\DOCUMENTS\VISUAL STUDIO 2017\PROJECTS\PROJECT CCP\PROJECT CCP\SRC\MATHS\MAT4.CPP
/c /ZI /nologo /W3 /WX- /diagnostics:classic /sdl /Od /Ob2 /Ot /Oy- /D GLEW_STATIC /D _CRT_SECURE_NO_WARNINGS /D _MBCS /Gm /EHsc /RTC1 /MDd /GS /fp:fast /permissive- /Zc:wchar_t /Zc:forScope /Zc:inline /Fo"C:\USERS\RANDSTAD\DOCUMENTS\VISUAL STUDIO 2017\PROJECTS\PROJECT CCP\BIN\DEBUG\INTERMEDIATES\\" /Fd"C:\USERS\RANDSTAD\DOCUMENTS\VISUAL STUDIO 2017\PROJECTS\PROJECT CCP\BIN\DEBUG\INTERMEDIATES\VC141.PDB" /Gd /TP /analyze- C:\USERS\RANDSTAD\DOCUMENTS\VISUAL STUDIO 2017\PROJECTS\PROJECT CCP\PROJECT CCP\SRC\MATHS\MAT4.CPP
^C:\USERS\RANDSTAD\DOCUMENTS\VISUAL STUDIO 2017\PROJECTS\PROJECT CCP\PROJECT CCP\SRC\MATHS\VEC2.CPP
/c /ZI /nologo /W3 /WX- /diagnostics:classic /sdl /Od /Ob2 /Ot /Oy- /D GLEW_STATIC /D _CRT_SECURE_NO_WARNINGS /D _MBCS /Gm /EHsc /RTC1 /MDd /GS /fp:fast /permissive- /Zc:wchar_t /Zc:forScope /Zc:inline /Fo"C:\USERS\RANDSTAD\DOCUMENTS\VISUAL STUDIO 2017\PROJECTS\PROJECT CCP\BIN\DEBUG\INTERMEDIATES\\" /Fd"C:\USERS\RANDSTAD\DOCUMENTS\VISUAL STUDIO 2017\PROJECTS\PROJECT CCP\BIN\DEBUG\INTERMEDIATES\VC141.PDB" /Gd /TP /analyze- C:\USERS\RANDSTAD\DOCUMENTS\VISUAL STUDIO 2017\PROJECTS\PROJECT CCP\PROJECT CCP\SRC\MATHS\VEC2.CPP
^C:\USERS\RANDSTAD\DOCUMENTS\VISUAL STUDIO 2017\PROJECTS\PROJECT CCP\PROJECT CCP\SRC\MATHS\VEC3.CPP
/c /ZI /nologo /W3 /WX- /diagnostics:classic /sdl /Od /Ob2 /Ot /Oy- /D GLEW_STATIC /D _CRT_SECURE_NO_WARNINGS /D _MBCS /Gm /EHsc /RTC1 /MDd /GS /fp:fast /permissive- /Zc:wchar_t /Zc:forScope /Zc:inline /Fo"C:\USERS\RANDSTAD\DOCUMENTS\VISUAL STUDIO 2017\PROJECTS\PROJECT CCP\BIN\DEBUG\INTERMEDIATES\\" /Fd"C:\USERS\RANDSTAD\DOCUMENTS\VISUAL STUDIO 2017\PROJECTS\PROJECT CCP\BIN\DEBUG\INTERMEDIATES\VC141.PDB" /Gd /TP /analyze- C:\USERS\RANDSTAD\DOCUMENTS\VISUAL STUDIO 2017\PROJECTS\PROJECT CCP\PROJECT CCP\SRC\MATHS\VEC3.CPP
^C:\USERS\RANDSTAD\DOCUMENTS\VISUAL STUDIO 2017\PROJECTS\PROJECT CCP\PROJECT CCP\SRC\MATHS\VEC4.CPP
/c /ZI /nologo /W3 /WX- /diagnostics:classic /sdl /Od /Ob2 /Ot /Oy- /D GLEW_STATIC /D _CRT_SECURE_NO_WARNINGS /D _MBCS /Gm /EHsc /RTC1 /MDd /GS /fp:fast /permissive- /Zc:wchar_t /Zc:forScope /Zc:inline /Fo"C:\USERS\RANDSTAD\DOCUMENTS\VISUAL STUDIO 2017\PROJECTS\PROJECT CCP\BIN\DEBUG\INTERMEDIATES\\" /Fd"C:\USERS\RANDSTAD\DOCUMENTS\VISUAL STUDIO 2017\PROJECTS\PROJECT CCP\BIN\DEBUG\INTERMEDIATES\VC141.PDB" /Gd /TP /analyze- C:\USERS\RANDSTAD\DOCUMENTS\VISUAL STUDIO 2017\PROJECTS\PROJECT CCP\PROJECT CCP\SRC\MATHS\VEC4.CPP
