^C:\USERS\RANDSTAD\DOCUMENTS\VISUAL STUDIO 2017\PROJECTS\PROJECT CCP\PROJECT CCP\MAIN.CPP|C:\USERS\RANDSTAD\DOCUMENTS\VISUAL STUDIO 2017\PROJECTS\PROJECT CCP\PROJECT CCP\SRC\GRAPHICS\BATCHRENDERER2D.CPP|C:\USERS\RANDSTAD\DOCUMENTS\VISUAL STUDIO 2017\PROJECTS\PROJECT CCP\PROJECT CCP\SRC\GRAPHICS\BUFFERS\BUFFER.CPP|C:\USERS\RANDSTAD\DOCUMENTS\VISUAL STUDIO 2017\PROJECTS\PROJECT CCP\PROJECT CCP\SRC\GRAPHICS\BUFFERS\INDEXBUFFER.CPP|C:\USERS\RANDSTAD\DOCUMENTS\VISUAL STUDIO 2017\PROJECTS\PROJECT CCP\PROJECT CCP\SRC\GRAPHICS\BUFFERS\VERTEXARRAY.CPP|C:\USERS\RANDSTAD\DOCUMENTS\VISUAL STUDIO 2017\PROJECTS\PROJECT CCP\PROJECT CCP\SRC\GRAPHICS\SHADER.CPP|C:\USERS\RANDSTAD\DOCUMENTS\VISUAL STUDIO 2017\PROJECTS\PROJECT CCP\PROJECT CCP\SRC\GRAPHICS\SIMPLERENDERER2D.CPP|C:\USERS\RANDSTAD\DOCUMENTS\VISUAL STUDIO 2017\PROJECTS\PROJECT CCP\PROJECT CCP\SRC\GRAPHICS\SPRITE.CPP|C:\USERS\RANDSTAD\DOCUMENTS\VISUAL STUDIO 2017\PROJECTS\PROJECT CCP\PROJECT CCP\SRC\GRAPHICS\STATICSPRITE.CPP|C:\USERS\RANDSTAD\DOCUMENTS\VISUAL STUDIO 2017\PROJECTS\PROJECT CCP\PROJECT CCP\SRC\GRAPHICS\WINDOW.CPP|C:\USERS\RANDSTAD\DOCUMENTS\VISUAL STUDIO 2017\PROJECTS\PROJECT CCP\PROJECT CCP\SRC\MATHS\MAT4.CPP|C:\USERS\RANDSTAD\DOCUMENTS\VISUAL STUDIO 2017\PROJECTS\PROJECT CCP\PROJECT CCP\SRC\MATHS\VEC2.CPP|C:\USERS\RANDSTAD\DOCUMENTS\VISUAL STUDIO 2017\PROJECTS\PROJECT CCP\PROJECT CCP\SRC\MATHS\VEC3.CPP|C:\USERS\RANDSTAD\DOCUMENTS\VISUAL STUDIO 2017\PROJECTS\PROJECT CCP\PROJECT CCP\SRC\MATHS\VEC4.CPP
C:\USERS\RANDSTAD\DOCUMENTS\VISUAL STUDIO 2017\PROJECTS\PROJECT CCP\BIN\DEBUG\INTERMEDIATES\VC141.PDB
C:\USERS\RANDSTAD\DOCUMENTS\VISUAL STUDIO 2017\PROJECTS\PROJECT CCP\BIN\DEBUG\INTERMEDIATES\VC141.IDB
C:\USERS\RANDSTAD\DOCUMENTS\VISUAL STUDIO 2017\PROJECTS\PROJECT CCP\BIN\DEBUG\INTERMEDIATES\MAIN.OBJ
C:\USERS\RANDSTAD\DOCUMENTS\VISUAL STUDIO 2017\PROJECTS\PROJECT CCP\BIN\DEBUG\INTERMEDIATES\BATCHRENDERER2D.OBJ
C:\USERS\RANDSTAD\DOCUMENTS\VISUAL STUDIO 2017\PROJECTS\PROJECT CCP\BIN\DEBUG\INTERMEDIATES\BUFFER.OBJ
C:\USERS\RANDSTAD\DOCUMENTS\VISUAL STUDIO 2017\PROJECTS\PROJECT CCP\BIN\DEBUG\INTERMEDIATES\INDEXBUFFER.OBJ
C:\USERS\RANDSTAD\DOCUMENTS\VISUAL STUDIO 2017\PROJECTS\PROJECT CCP\BIN\DEBUG\INTERMEDIATES\VERTEXARRAY.OBJ
C:\USERS\RANDSTAD\DOCUMENTS\VISUAL STUDIO 2017\PROJECTS\PROJECT CCP\BIN\DEBUG\INTERMEDIATES\SIMPLERENDERER2D.OBJ
C:\USERS\RANDSTAD\DOCUMENTS\VISUAL STUDIO 2017\PROJECTS\PROJECT CCP\BIN\DEBUG\INTERMEDIATES\SHADER.OBJ
C:\USERS\RANDSTAD\DOCUMENTS\VISUAL STUDIO 2017\PROJECTS\PROJECT CCP\BIN\DEBUG\INTERMEDIATES\SPRITE.OBJ
C:\USERS\RANDSTAD\DOCUMENTS\VISUAL STUDIO 2017\PROJECTS\PROJECT CCP\BIN\DEBUG\INTERMEDIATES\STATICSPRITE.OBJ
C:\USERS\RANDSTAD\DOCUMENTS\VISUAL STUDIO 2017\PROJECTS\PROJECT CCP\BIN\DEBUG\INTERMEDIATES\WINDOW.OBJ
C:\USERS\RANDSTAD\DOCUMENTS\VISUAL STUDIO 2017\PROJECTS\PROJECT CCP\BIN\DEBUG\INTERMEDIATES\MAT4.OBJ
C:\USERS\RANDSTAD\DOCUMENTS\VISUAL STUDIO 2017\PROJECTS\PROJECT CCP\BIN\DEBUG\INTERMEDIATES\VEC2.OBJ
C:\USERS\RANDSTAD\DOCUMENTS\VISUAL STUDIO 2017\PROJECTS\PROJECT CCP\BIN\DEBUG\INTERMEDIATES\VEC3.OBJ
C:\USERS\RANDSTAD\DOCUMENTS\VISUAL STUDIO 2017\PROJECTS\PROJECT CCP\BIN\DEBUG\INTERMEDIATES\VEC4.OBJ
^C:\USERS\RANDSTAD\DOCUMENTS\VISUAL STUDIO 2017\PROJECTS\PROJECT CCP\PROJECT CCP\MAIN.CPP
C:\USERS\RANDSTAD\DOCUMENTS\VISUAL STUDIO 2017\PROJECTS\PROJECT CCP\BIN\DEBUG\INTERMEDIATES\VC141.PDB
C:\USERS\RANDSTAD\DOCUMENTS\VISUAL STUDIO 2017\PROJECTS\PROJECT CCP\BIN\DEBUG\INTERMEDIATES\VC141.IDB
C:\USERS\RANDSTAD\DOCUMENTS\VISUAL STUDIO 2017\PROJECTS\PROJECT CCP\BIN\DEBUG\INTERMEDIATES\MAIN.OBJ
^C:\USERS\RANDSTAD\DOCUMENTS\VISUAL STUDIO 2017\PROJECTS\PROJECT CCP\PROJECT CCP\SRC\GRAPHICS\BATCHRENDERER2D.CPP
C:\USERS\RANDSTAD\DOCUMENTS\VISUAL STUDIO 2017\PROJECTS\PROJECT CCP\BIN\DEBUG\INTERMEDIATES\VC141.PDB
C:\USERS\RANDSTAD\DOCUMENTS\VISUAL STUDIO 2017\PROJECTS\PROJECT CCP\BIN\DEBUG\INTERMEDIATES\VC141.IDB
C:\USERS\RANDSTAD\DOCUMENTS\VISUAL STUDIO 2017\PROJECTS\PROJECT CCP\BIN\DEBUG\INTERMEDIATES\BATCHRENDERER2D.OBJ
^C:\USERS\RANDSTAD\DOCUMENTS\VISUAL STUDIO 2017\PROJECTS\PROJECT CCP\PROJECT CCP\SRC\GRAPHICS\BUFFERS\BUFFER.CPP
C:\USERS\RANDSTAD\DOCUMENTS\VISUAL STUDIO 2017\PROJECTS\PROJECT CCP\BIN\DEBUG\INTERMEDIATES\VC141.PDB
^C:\USERS\RANDSTAD\DOCUMENTS\VISUAL STUDIO 2017\PROJECTS\PROJECT CCP\PROJECT CCP\SRC\GRAPHICS\BUFFERS\INDEXBUFFER.CPP
C:\USERS\RANDSTAD\DOCUMENTS\VISUAL STUDIO 2017\PROJECTS\PROJECT CCP\BIN\DEBUG\INTERMEDIATES\VC141.PDB
^C:\USERS\RANDSTAD\DOCUMENTS\VISUAL STUDIO 2017\PROJECTS\PROJECT CCP\PROJECT CCP\SRC\GRAPHICS\BUFFERS\VERTEXARRAY.CPP
C:\USERS\RANDSTAD\DOCUMENTS\VISUAL STUDIO 2017\PROJECTS\PROJECT CCP\BIN\DEBUG\INTERMEDIATES\VC141.PDB
^C:\USERS\RANDSTAD\DOCUMENTS\VISUAL STUDIO 2017\PROJECTS\PROJECT CCP\PROJECT CCP\SRC\GRAPHICS\SIMPLERENDERER2D.CPP
C:\USERS\RANDSTAD\DOCUMENTS\VISUAL STUDIO 2017\PROJECTS\PROJECT CCP\BIN\DEBUG\INTERMEDIATES\VC141.PDB
^C:\USERS\RANDSTAD\DOCUMENTS\VISUAL STUDIO 2017\PROJECTS\PROJECT CCP\PROJECT CCP\SRC\GRAPHICS\SHADER.CPP
C:\USERS\RANDSTAD\DOCUMENTS\VISUAL STUDIO 2017\PROJECTS\PROJECT CCP\BIN\DEBUG\INTERMEDIATES\VC141.PDB
^C:\USERS\RANDSTAD\DOCUMENTS\VISUAL STUDIO 2017\PROJECTS\PROJECT CCP\PROJECT CCP\SRC\GRAPHICS\SPRITE.CPP
C:\USERS\RANDSTAD\DOCUMENTS\VISUAL STUDIO 2017\PROJECTS\PROJECT CCP\BIN\DEBUG\INTERMEDIATES\VC141.PDB
^C:\USERS\RANDSTAD\DOCUMENTS\VISUAL STUDIO 2017\PROJECTS\PROJECT CCP\PROJECT CCP\SRC\GRAPHICS\STATICSPRITE.CPP
C:\USERS\RANDSTAD\DOCUMENTS\VISUAL STUDIO 2017\PROJECTS\PROJECT CCP\BIN\DEBUG\INTERMEDIATES\VC141.PDB
^C:\USERS\RANDSTAD\DOCUMENTS\VISUAL STUDIO 2017\PROJECTS\PROJECT CCP\PROJECT CCP\SRC\GRAPHICS\WINDOW.CPP
C:\USERS\RANDSTAD\DOCUMENTS\VISUAL STUDIO 2017\PROJECTS\PROJECT CCP\BIN\DEBUG\INTERMEDIATES\VC141.PDB
^C:\USERS\RANDSTAD\DOCUMENTS\VISUAL STUDIO 2017\PROJECTS\PROJECT CCP\PROJECT CCP\SRC\MATHS\MAT4.CPP
C:\USERS\RANDSTAD\DOCUMENTS\VISUAL STUDIO 2017\PROJECTS\PROJECT CCP\BIN\DEBUG\INTERMEDIATES\VC141.PDB
^C:\USERS\RANDSTAD\DOCUMENTS\VISUAL STUDIO 2017\PROJECTS\PROJECT CCP\PROJECT CCP\SRC\MATHS\VEC2.CPP
C:\USERS\RANDSTAD\DOCUMENTS\VISUAL STUDIO 2017\PROJECTS\PROJECT CCP\BIN\DEBUG\INTERMEDIATES\VC141.PDB
^C:\USERS\RANDSTAD\DOCUMENTS\VISUAL STUDIO 2017\PROJECTS\PROJECT CCP\PROJECT CCP\SRC\MATHS\VEC3.CPP
C:\USERS\RANDSTAD\DOCUMENTS\VISUAL STUDIO 2017\PROJECTS\PROJECT CCP\BIN\DEBUG\INTERMEDIATES\VC141.PDB
^C:\USERS\RANDSTAD\DOCUMENTS\VISUAL STUDIO 2017\PROJECTS\PROJECT CCP\PROJECT CCP\SRC\MATHS\VEC4.CPP
C:\USERS\RANDSTAD\DOCUMENTS\VISUAL STUDIO 2017\PROJECTS\PROJECT CCP\BIN\DEBUG\INTERMEDIATES\VC141.PDB
