^C:\USERS\RANDSTAD\DOCUMENTS\VISUAL STUDIO 2017\PROJECTS\PROJECT CCP\BIN\DEBUG\INTERMEDIATES\BATCHRENDERER2D.OBJ|C:\USERS\RANDSTAD\DOCUMENTS\VISUAL STUDIO 2017\PROJECTS\PROJECT CCP\BIN\DEBUG\INTERMEDIATES\BUFFER.OBJ|C:\USERS\RANDSTAD\DOCUMENTS\VISUAL STUDIO 2017\PROJECTS\PROJECT CCP\BIN\DEBUG\INTERMEDIATES\INDEXBUFFER.OBJ|C:\USERS\RANDSTAD\DOCUMENTS\VISUAL STUDIO 2017\PROJECTS\PROJECT CCP\BIN\DEBUG\INTERMEDIATES\MAIN.OBJ|C:\USERS\RANDSTAD\DOCUMENTS\VISUAL STUDIO 2017\PROJECTS\PROJECT CCP\BIN\DEBUG\INTERMEDIATES\MAT4.OBJ|C:\USERS\RANDSTAD\DOCUMENTS\VISUAL STUDIO 2017\PROJECTS\PROJECT CCP\BIN\DEBUG\INTERMEDIATES\SHADER.OBJ|C:\USERS\RANDSTAD\DOCUMENTS\VISUAL STUDIO 2017\PROJECTS\PROJECT CCP\BIN\DEBUG\INTERMEDIATES\SIMPLERENDERER2D.OBJ|C:\USERS\RANDSTAD\DOCUMENTS\VISUAL STUDIO 2017\PROJECTS\PROJECT CCP\BIN\DEBUG\INTERMEDIATES\SPRITE.OBJ|C:\USERS\RANDSTAD\DOCUMENTS\VISUAL STUDIO 2017\PROJECTS\PROJECT CCP\BIN\DEBUG\INTERMEDIATES\STATICSPRITE.OBJ|C:\USERS\RANDSTAD\DOCUMENTS\VISUAL STUDIO 2017\PROJECTS\PROJECT CCP\BIN\DEBUG\INTERMEDIATES\VEC2.OBJ|C:\USERS\RANDSTAD\DOCUMENTS\VISUAL STUDIO 2017\PROJECTS\PROJECT CCP\BIN\DEBUG\INTERMEDIATES\VEC3.OBJ|C:\USERS\RANDSTAD\DOCUMENTS\VISUAL STUDIO 2017\PROJECTS\PROJECT CCP\BIN\DEBUG\INTERMEDIATES\VEC4.OBJ|C:\USERS\RANDSTAD\DOCUMENTS\VISUAL STUDIO 2017\PROJECTS\PROJECT CCP\BIN\DEBUG\INTERMEDIATES\VERTEXARRAY.OBJ|C:\USERS\RANDSTAD\DOCUMENTS\VISUAL STUDIO 2017\PROJECTS\PROJECT CCP\BIN\DEBUG\INTERMEDIATES\WINDOW.OBJ
C:\USERS\RANDSTAD\DOCUMENTS\VISUAL STUDIO 2017\PROJECTS\PROJECT CCP\BIN\DEBUG\PROJECT CPP.EXE
C:\USERS\RANDSTAD\DOCUMENTS\VISUAL STUDIO 2017\PROJECTS\PROJECT CCP\BIN\DEBUG\PROJECT CPP.ILK
C:\USERS\RANDSTAD\DOCUMENTS\VISUAL STUDIO 2017\PROJECTS\PROJECT CCP\BIN\DEBUG\PROJECT CPP.PDB
