^C:\USERS\RANDSTAD\DOCUMENTS\VISUAL STUDIO 2017\PROJECTS\PROJECT CCP\BIN\DEBUG\INTERMEDIATES\BATCHRENDERER2D.OBJ|C:\USERS\RANDSTAD\DOCUMENTS\VISUAL STUDIO 2017\PROJECTS\PROJECT CCP\BIN\DEBUG\INTERMEDIATES\BUFFER.OBJ|C:\USERS\RANDSTAD\DOCUMENTS\VISUAL STUDIO 2017\PROJECTS\PROJECT CCP\BIN\DEBUG\INTERMEDIATES\INDEXBUFFER.OBJ|C:\USERS\RANDSTAD\DOCUMENTS\VISUAL STUDIO 2017\PROJECTS\PROJECT CCP\BIN\DEBUG\INTERMEDIATES\MAIN.OBJ|C:\USERS\RANDSTAD\DOCUMENTS\VISUAL STUDIO 2017\PROJECTS\PROJECT CCP\BIN\DEBUG\INTERMEDIATES\MAT4.OBJ|C:\USERS\RANDSTAD\DOCUMENTS\VISUAL STUDIO 2017\PROJECTS\PROJECT CCP\BIN\DEBUG\INTERMEDIATES\SHADER.OBJ|C:\USERS\RANDSTAD\DOCUMENTS\VISUAL STUDIO 2017\PROJECTS\PROJECT CCP\BIN\DEBUG\INTERMEDIATES\SIMPLERENDERER2D.OBJ|C:\USERS\RANDSTAD\DOCUMENTS\VISUAL STUDIO 2017\PROJECTS\PROJECT CCP\BIN\DEBUG\INTERMEDIATES\SPRITE.OBJ|C:\USERS\RANDSTAD\DOCUMENTS\VISUAL STUDIO 2017\PROJECTS\PROJECT CCP\BIN\DEBUG\INTERMEDIATES\STATICSPRITE.OBJ|C:\USERS\RANDSTAD\DOCUMENTS\VISUAL STUDIO 2017\PROJECTS\PROJECT CCP\BIN\DEBUG\INTERMEDIATES\VEC2.OBJ|C:\USERS\RANDSTAD\DOCUMENTS\VISUAL STUDIO 2017\PROJECTS\PROJECT CCP\BIN\DEBUG\INTERMEDIATES\VEC3.OBJ|C:\USERS\RANDSTAD\DOCUMENTS\VISUAL STUDIO 2017\PROJECTS\PROJECT CCP\BIN\DEBUG\INTERMEDIATES\VEC4.OBJ|C:\USERS\RANDSTAD\DOCUMENTS\VISUAL STUDIO 2017\PROJECTS\PROJECT CCP\BIN\DEBUG\INTERMEDIATES\VERTEXARRAY.OBJ|C:\USERS\RANDSTAD\DOCUMENTS\VISUAL STUDIO 2017\PROJECTS\PROJECT CCP\BIN\DEBUG\INTERMEDIATES\WINDOW.OBJ
C:\WINDOWS\GLOBALIZATION\SORTING\SORTDEFAULT.NLS
C:\USERS\RANDSTAD\DOCUMENTS\DEPENDENCIES\GLFW-3.2.1.BIN.WIN32\LIB-VC2015\GLFW3.LIB
C:\USERS\RANDSTAD\DOCUMENTS\DEPENDENCIES\GLEW-2.1.0\LIB\RELEASE\WIN32\GLEW32S.LIB
C:\PROGRAM FILES (X86)\WINDOWS KITS\10\LIB\10.0.16299.0\UM\X86\OPENGL32.LIB
C:\PROGRAM FILES (X86)\WINDOWS KITS\10\LIB\10.0.16299.0\UM\X86\KERNEL32.LIB
C:\PROGRAM FILES (X86)\WINDOWS KITS\10\LIB\10.0.16299.0\UM\X86\USER32.LIB
C:\PROGRAM FILES (X86)\WINDOWS KITS\10\LIB\10.0.16299.0\UM\X86\GDI32.LIB
C:\PROGRAM FILES (X86)\WINDOWS KITS\10\LIB\10.0.16299.0\UM\X86\WINSPOOL.LIB
C:\PROGRAM FILES (X86)\WINDOWS KITS\10\LIB\10.0.16299.0\UM\X86\COMDLG32.LIB
C:\PROGRAM FILES (X86)\WINDOWS KITS\10\LIB\10.0.16299.0\UM\X86\ADVAPI32.LIB
C:\PROGRAM FILES (X86)\WINDOWS KITS\10\LIB\10.0.16299.0\UM\X86\SHELL32.LIB
C:\PROGRAM FILES (X86)\WINDOWS KITS\10\LIB\10.0.16299.0\UM\X86\OLE32.LIB
C:\PROGRAM FILES (X86)\WINDOWS KITS\10\LIB\10.0.16299.0\UM\X86\OLEAUT32.LIB
C:\PROGRAM FILES (X86)\WINDOWS KITS\10\LIB\10.0.16299.0\UM\X86\UUID.LIB
C:\PROGRAM FILES (X86)\WINDOWS KITS\10\LIB\10.0.16299.0\UM\X86\ODBC32.LIB
C:\PROGRAM FILES (X86)\WINDOWS KITS\10\LIB\10.0.16299.0\UM\X86\ODBCCP32.LIB
C:\USERS\RANDSTAD\DOCUMENTS\VISUAL STUDIO 2017\PROJECTS\PROJECT CCP\BIN\DEBUG\INTERMEDIATES\MAIN.OBJ
C:\USERS\RANDSTAD\DOCUMENTS\VISUAL STUDIO 2017\PROJECTS\PROJECT CCP\BIN\DEBUG\INTERMEDIATES\BATCHRENDERER2D.OBJ
C:\USERS\RANDSTAD\DOCUMENTS\VISUAL STUDIO 2017\PROJECTS\PROJECT CCP\BIN\DEBUG\INTERMEDIATES\BUFFER.OBJ
C:\USERS\RANDSTAD\DOCUMENTS\VISUAL STUDIO 2017\PROJECTS\PROJECT CCP\BIN\DEBUG\INTERMEDIATES\INDEXBUFFER.OBJ
C:\USERS\RANDSTAD\DOCUMENTS\VISUAL STUDIO 2017\PROJECTS\PROJECT CCP\BIN\DEBUG\INTERMEDIATES\VERTEXARRAY.OBJ
C:\USERS\RANDSTAD\DOCUMENTS\VISUAL STUDIO 2017\PROJECTS\PROJECT CCP\BIN\DEBUG\INTERMEDIATES\SIMPLERENDERER2D.OBJ
C:\USERS\RANDSTAD\DOCUMENTS\VISUAL STUDIO 2017\PROJECTS\PROJECT CCP\BIN\DEBUG\INTERMEDIATES\SHADER.OBJ
C:\USERS\RANDSTAD\DOCUMENTS\VISUAL STUDIO 2017\PROJECTS\PROJECT CCP\BIN\DEBUG\INTERMEDIATES\SPRITE.OBJ
C:\USERS\RANDSTAD\DOCUMENTS\VISUAL STUDIO 2017\PROJECTS\PROJECT CCP\BIN\DEBUG\INTERMEDIATES\STATICSPRITE.OBJ
C:\USERS\RANDSTAD\DOCUMENTS\VISUAL STUDIO 2017\PROJECTS\PROJECT CCP\BIN\DEBUG\INTERMEDIATES\WINDOW.OBJ
C:\USERS\RANDSTAD\DOCUMENTS\VISUAL STUDIO 2017\PROJECTS\PROJECT CCP\BIN\DEBUG\INTERMEDIATES\MAT4.OBJ
C:\USERS\RANDSTAD\DOCUMENTS\VISUAL STUDIO 2017\PROJECTS\PROJECT CCP\BIN\DEBUG\INTERMEDIATES\VEC2.OBJ
C:\USERS\RANDSTAD\DOCUMENTS\VISUAL STUDIO 2017\PROJECTS\PROJECT CCP\BIN\DEBUG\INTERMEDIATES\VEC3.OBJ
C:\USERS\RANDSTAD\DOCUMENTS\VISUAL STUDIO 2017\PROJECTS\PROJECT CCP\BIN\DEBUG\INTERMEDIATES\VEC4.OBJ
C:\WINDOWS\SYSTEM32\TZRES.DLL
C:\PROGRAM FILES (X86)\MICROSOFT VISUAL STUDIO\2017\COMMUNITY\VC\TOOLS\MSVC\14.12.25827\LIB\X86\MSVCPRTD.LIB
C:\PROGRAM FILES (X86)\MICROSOFT VISUAL STUDIO\2017\COMMUNITY\VC\TOOLS\MSVC\14.12.25827\LIB\X86\MSVCRTD.LIB
C:\PROGRAM FILES (X86)\MICROSOFT VISUAL STUDIO\2017\COMMUNITY\VC\TOOLS\MSVC\14.12.25827\LIB\X86\OLDNAMES.LIB
C:\PROGRAM FILES (X86)\MICROSOFT VISUAL STUDIO\2017\COMMUNITY\VC\TOOLS\MSVC\14.12.25827\LIB\X86\MSVCRT.LIB
C:\PROGRAM FILES (X86)\MICROSOFT VISUAL STUDIO\2017\COMMUNITY\VC\TOOLS\MSVC\14.12.25827\LIB\X86\LIBCMT.LIB
C:\PROGRAM FILES (X86)\MICROSOFT VISUAL STUDIO\2017\COMMUNITY\VC\TOOLS\MSVC\14.12.25827\LIB\X86\VCRUNTIMED.LIB
C:\PROGRAM FILES (X86)\WINDOWS KITS\10\LIB\10.0.16299.0\UCRT\X86\UCRTD.LIB
