^C:\USERS\RANDSTAD\DOCUMENTS\VISUAL STUDIO 2017\PROJECTS\PROJECT CCP\PROJECT CCP\MAIN.CPP
C:\USERS\RANDSTAD\DOCUMENTS\VISUAL STUDIO 2017\PROJECTS\PROJECT CCP\PROJECT CCP\DEBUG\VC141.PDB
C:\USERS\RANDSTAD\DOCUMENTS\VISUAL STUDIO 2017\PROJECTS\PROJECT CCP\PROJECT CCP\DEBUG\VC141.IDB
C:\USERS\RANDSTAD\DOCUMENTS\VISUAL STUDIO 2017\PROJECTS\PROJECT CCP\PROJECT CCP\DEBUG\MAIN.OBJ
^C:\USERS\RANDSTAD\DOCUMENTS\VISUAL STUDIO 2017\PROJECTS\PROJECT CCP\PROJECT CCP\MAIN.CPP|C:\USERS\RANDSTAD\DOCUMENTS\VISUAL STUDIO 2017\PROJECTS\PROJECT CCP\PROJECT CCP\SRC\GRAPHICS\WINDOW.CPP
C:\USERS\RANDSTAD\DOCUMENTS\VISUAL STUDIO 2017\PROJECTS\PROJECT CCP\PROJECT CCP\DEBUG\VC141.PDB
C:\USERS\RANDSTAD\DOCUMENTS\VISUAL STUDIO 2017\PROJECTS\PROJECT CCP\PROJECT CCP\DEBUG\VC141.IDB
C:\USERS\RANDSTAD\DOCUMENTS\VISUAL STUDIO 2017\PROJECTS\PROJECT CCP\PROJECT CCP\DEBUG\MAIN.OBJ
C:\USERS\RANDSTAD\DOCUMENTS\VISUAL STUDIO 2017\PROJECTS\PROJECT CCP\PROJECT CCP\DEBUG\WINDOW.OBJ
^C:\USERS\RANDSTAD\DOCUMENTS\VISUAL STUDIO 2017\PROJECTS\PROJECT CCP\PROJECT CCP\SRC\GRAPHICS\WINDOW.CPP
C:\USERS\RANDSTAD\DOCUMENTS\VISUAL STUDIO 2017\PROJECTS\PROJECT CCP\PROJECT CCP\DEBUG\VC141.PDB
C:\USERS\RANDSTAD\DOCUMENTS\VISUAL STUDIO 2017\PROJECTS\PROJECT CCP\PROJECT CCP\DEBUG\VC141.IDB
C:\USERS\RANDSTAD\DOCUMENTS\VISUAL STUDIO 2017\PROJECTS\PROJECT CCP\PROJECT CCP\DEBUG\WINDOW.OBJ
